/* XPM */
/* -copyright-
#-# Copyright © 2021 Eric Bina, Dave Black, TJ Phan, 
#-#    Vincent Renardias, Jim Rees, Willem Vermin
#-# 
#-# Permission is hereby granted, free of charge, to any person 
#-# obtaining a copy of this software and associated documentation 
#-# files (the “Software”), to deal in the Software without 
#-# restriction, including without limitation the rights to use, 
#-# copy, modify, merge, publish, distribute, sublicense, and/or 
#-# sell copies of the Software, and to permit persons to whom 
#-# the Software is furnished to do so, subject to the following 
#-# conditions:
#-# 
#-# The above copyright notice and this permission notice shall 
#-# be included in all copies or substantial portions of the Software.
#-# 
#-# THE SOFTWARE IS PROVIDED “AS IS”, WITHOUT WARRANTY OF ANY KIND, 
#-# EXPRESS OR IMPLIED, INCLUDING BUT NOT LIMITED TO THE WARRANTIES 
#-# OF MERCHANTABILITY, FITNESS FOR A PARTICULAR PURPOSE AND 
#-# NONINFRINGEMENT. IN NO EVENT SHALL THE AUTHORS OR COPYRIGHT 
#-# HOLDERS BE LIABLE FOR ANY CLAIM, DAMAGES OR OTHER LIABILITY, 
#-# WHETHER IN AN ACTION OF CONTRACT, TORT OR OTHERWISE, ARISING 
#-# FROM, OUT OF OR IN CONNECTION WITH THE SOFTWARE OR THE USE OR 
#-# OTHER DEALINGS IN THE SOFTWARE.
#-# 
*/
static const char * fish02a_xpm[] = {
"71 44 15 1",
" 	c None",
".	c #3F2727240F01",
"X	c #9391564A0000",
"o	c #9C92594A0200",
"O	c #7D6F48480500",
"+	c #584A49481F03",
"@	c #8890746E1001",
"#	c #070009010200",
"$	c #746E4A481202",
"%	c #98928E91818F",
"&	c #5F4B584A4D49",
"*	c #828F746E5E4B",
"=	c #9191828F4F49",
"-	c #97928C914F49",
";	c #A4B396924448",
"                           .                                           ",
"                          X.X                                          ",
"                         XX.XX                                         ",
"                      o ooX.Xo.o                                       ",
"                     .XoXX.OXX.Xo                                      ",
"                    o.X+Xo.XX.Oo.X                                     ",
"                    X.X....Xo.Xo.oX@                                   ",
"                   ####.XO+...O.OXX.o                                  ",
"                  #####.XXXXXX...X.XX.                                 ",
"                #######.$O$XX+$+O...X.Xo.XXXo                          ",
"              ###.#####.%&*&*&&&+&&&..X+.XXX.o                         ",
"             ###X.######XXXXXOXXXXXXX+..XXo.XoO                        ",
"            ###+XX######oXXXXXXXXXXoXXX..XX.XXXo                       ",
"           ####XXX######XXXXXoXXooXXoXXXX..oXXXoX                      ",
"          ####OXoX######.....+&+.++XX+XXXXX..XX..X                     ",
"         ####.XXoX######========-%%%%%%&+.X+...Xooo                    ",
"        #####XXooX######XXXXXXXXXXXoXXXoo$++O.oooX.                 XX.",
"       #####.XooXX######XooXoooXXXXXXXXXXooXXX.+..XX             o.oX.X",
"      ######OXoooX.#####XXoXooooXXXXXXXXXoooXXoX.XooX           .ooX.. ",
"     X######XXXXXX.#####XXXXXXXXXXXXXXXXooXoXXXoX.XXX         o.o....  ",
"    X+##.%#.XXXXXX.#####.++$$O$XXooooooXXXXXoooooX          o.XX..XO   ",
"   oX.##..#XXXXXoX+#####&*=====%%%%%=%%%=======&=oXXoXX  o@OOX..oX.    ",
"  oXo.####.XXXXoXX.#####XXoXXXXXXXXXXXXoXXXoXXXXooooXooXXoO.XOX...     ",
" #XXX#####XXXXXXXX.#####XooXooXXXXXXXXXXXXoooooooXoooooXooX.....+      ",
" ##XX#####XXXXXXXX######XXoXoXXXXXXoXXXXXooooooXXoooXooooXX.XoX.       ",
"####X####XXXXXXXXo#####.XooXoOOOXOXXXOooooooooXXoXXOXOOoooX....O       ",
"########.XXXXXXXX.#####&+XXXXXXXXXXXXX$=%%%%;=====&=++$O.oO.OXoO       ",
"  ######XXXXXXXXX..##..XXXXXXXXXXXXoooXoXoXoo$&&+XXO..+.OO.......      ",
" ######.XXXXXXXO%%%;oXX+XXXXXoooXXXXXXOoXXXXXXXooXO..OooXX....oo..     ",
"  #####+oXXXXXX=%%%%@=@@@==@XXoXOOOXXOXoXoXXooXXO...     o..XO.XX.o    ",
"    ###XXXXXX@*%*%=%%%%%%%%%%=$XooXXXXXXXX@@==&+$++o..     X.OX..o.    ",
"      #X++&&%-%%==**=%%%----**=%%%%%%%%%%%%%=&+$...oXX      o.XoX..o   ",
"        X+++*%%%%%%%**==-%=**=%%%%%%%%%%%--=&&+.+XX..o        ..ooX.   ",
"            ===%%%%%====*=*===%%%%%-%%%%=*&&+..X.oXXX          X.XoXo  ",
"               ====&*=====*===-********&&--.X.XXX.oo            o...X  ",
"                    O..++++&&&&&&&&&&&&    o..XXXO                oo.  ",
"                     ooXO+.O   &&&&&&       XX.X                       ",
"                       oXXXoX.o              oX.                       ",
"                         oXXoXXoo                                      ",
"                            oXoooo                                     ",
"                                 oo                                    ",
"                                                                       ",
"                                                                       ",
"                                                                       "};
