/* XPM */
/* -copyright-
#-# Copyright © 2021 Eric Bina, Dave Black, TJ Phan, 
#-#    Vincent Renardias, Jim Rees, Willem Vermin
#-# 
#-# Permission is hereby granted, free of charge, to any person 
#-# obtaining a copy of this software and associated documentation 
#-# files (the “Software”), to deal in the Software without 
#-# restriction, including without limitation the rights to use, 
#-# copy, modify, merge, publish, distribute, sublicense, and/or 
#-# sell copies of the Software, and to permit persons to whom 
#-# the Software is furnished to do so, subject to the following 
#-# conditions:
#-# 
#-# The above copyright notice and this permission notice shall 
#-# be included in all copies or substantial portions of the Software.
#-# 
#-# THE SOFTWARE IS PROVIDED “AS IS”, WITHOUT WARRANTY OF ANY KIND, 
#-# EXPRESS OR IMPLIED, INCLUDING BUT NOT LIMITED TO THE WARRANTIES 
#-# OF MERCHANTABILITY, FITNESS FOR A PARTICULAR PURPOSE AND 
#-# NONINFRINGEMENT. IN NO EVENT SHALL THE AUTHORS OR COPYRIGHT 
#-# HOLDERS BE LIABLE FOR ANY CLAIM, DAMAGES OR OTHER LIABILITY, 
#-# WHETHER IN AN ACTION OF CONTRACT, TORT OR OTHERWISE, ARISING 
#-# FROM, OUT OF OR IN CONNECTION WITH THE SOFTWARE OR THE USE OR 
#-# OTHER DEALINGS IN THE SOFTWARE.
#-# 
*/
static const char * fish03b_xpm[] = {
"83 52 15 1",
" 	c None",
".	c #12021E035049",
"X	c #13021A033025",
"o	c #45482D250D01",
"O	c #716D3A270400",
"+	c #8A905E4B0500",
"@	c #A0B35A4A0100",
"#	c #3B2738263426",
"$	c #06000C010200",
"%	c #190318021302",
"&	c #0A0127240600",
"*	c #120234260E01",
"=	c #24245B4B0901",
"-	c #3926676C1903",
";	c #A1B3666C0000",
"                                           ........XXXXXXXXX                       ",
"                                     ..XXXXoooOOOOOOOooooo.XXXX                    ",
"                                  ...XXoOO+O++O+OOO+O@+OOooooXXXX                  ",
"                               oX.#oOO+OOOOooooooooooo$$OOooooooXXXX               ",
"                            ooooOOOooo%$$$$$$$&$&&&&&*$&%$$OOoOooooXXXX            ",
"                          ooOOOOo%&$&&&$$$$$&&**&&&&&$$$*$$$$$$$OOooOXXXXX         ",
"                        oOOOo*&&&&&&&&&&&&&&&$$$$&$*&&*&$&&&$%oO$$OO&&OOOXX        ",
"                      ooo*&**&&&&*&&&&*&&&&**&&&$$*&*&$&***$&*&$o$$$$&&&O&XXXX     ",
"                    o&&&&&***&*&&*****&&=**&*&*&&&$$&&**$$&**$&&&$%o$$OOO&OOOXXXX  ",
"                   o$&*******&*========**&***&*&&&&&$&$$**$$&&&$*&&$O$&O&OO&&O&OXXX",
"                 oo&&&*****=========-==-====**&&**&&&$&*&*&&$&*%%%%XXXXXXXXOO&O&OOX",
"               **&&*&&*=---=-=-=--==-=-=---====*****&$$$&=*$&%XXXXXXX      XXXXXXX ",
"              &&&*&**====--=---====---==---===--=**&&&$$$*=*$XXX                   ",
"             *&&&*%%==--=-=----===----=-==--=-====***&&$$*$**.X                    ",
"            ***oO#.X=-===-=-=-----===-=-----=========*&&$**&XX                     ",
"           &*o++@O..#=--===-=----=--==-=-====-========**$$$&XX                     ",
"          **O@@;@O..#-==-=-$=-----==-==========-===-====&$$&.X           $$$       ",
"         **O+@;;@+..#=---=*+&--------=---==-=======+=====&$$%        $$$$OOO       ",
"        **+@;@@@@+X.%-==-$+++O---==-====-==-=======+-=====*$$    $$$$OOOOOOO       ",
"       **++@;;O@;+..X=-=$+++++o----=--=======-=-==--===-==*&&  $$$OOOOOOO%%%       ",
"      **;+Xo;+o++OXX%==*++ooooO-===---======--=-===========*&$$$oOOOOO%%%OOo       ",
"     **+O%++XOo++O..%=*+oo++++O--=-=-========-=========+===*&OOOOOO%%%OOOOOO       ",
"   .X-;O%o$++oo++o.X**+o@+++++o-=-=-==============-====+===*&OOO%%%%OOOOOOOo       ",
"  ..X++oX+$$+%o++..$OooO;oooooO==--==-============-====-===*$OOOOOOOOOO%%%%%       ",
" ...X+;O$++#$ooOOX.%ooooo;++;+O-=-================-===-====*%OO%%%%%%%%%oooo       ",
"....X@+@O%XoOOo+#.X..%+;++++++O---======--========+-=====-=&oOOOOOOOOOOOoOoo       ",
".....X@@@;+@+o+OX#X.XXooooooooo=--=-==-=-========--=====*o*&oOO%%%%%OO%%OOoo       ",
" ....X++++;;;o+oX=%XXXX$@@;@@@O-=--==-==-=============o=***oOO%OOOO$%OO%%%$        ",
" ...X==oOO+;o%+%===%X%&&&&@@@@O----===-==============--=*&$$$$O%%%Ooo%%OO%o        ",
"  .X=======oOO-===========&&&&--=---=============-===-==*&     oOo%oooo%%%o        ",
"   ==========oo=======-=====-==-----=============-=====**&&     $oo%%%oo$$         ",
"     *=========================-=================O-=====*=&      $%oo%%%oo         ",
"       ==========================================-======**%&       %oo$$%%         ",
"        *==========================-=====================*..         %%$oo         ",
"          &======================-=====================**&..            %%         ",
"           *=============-=============================*&%..                       ",
"             ==================-======================*&&X.X                       ",
"               *=====================================*$&$%.X                       ",
"                 o**================================&$$$&$.X                       ",
"                  Ooo**===========================*&&&$&$&&.X                      ",
"                    OOoo*======================**&&$&$*&&&&&..                     ",
"                     OOOOo**==============**=*&&$$$$**$$&$*&&..                    ",
"                      OOOOOo**============*&*&$$&&&$$&$&&&$&$&&...                 ",
"                        OOOOOOO**********&&%%%%%&&&$$**&$&$&&*&$&&.                ",
"                          OOOOO*       *****XXXXXXX%%$$&&&$&&$&&*$&&..             ",
"                            OOOOOO                 XXXXXXX*$&&$$$&*$&..            ",
"                             OOO@OOO                     XXX*&$&*&$&*&.X           ",
"                               OO+@OO                       XXXXXXXX$&$X           ",
"                                +@+@OO                             XXX$X           ",
"                                  OOOO                                             ",
"                                                                                   ",
"                                                                                   "};
