/* XPM */
/* -copyright-
#-# Copyright © 2021 Eric Bina, Dave Black, TJ Phan, 
#-#    Vincent Renardias, Jim Rees, Willem Vermin
#-# 
#-# Permission is hereby granted, free of charge, to any person 
#-# obtaining a copy of this software and associated documentation 
#-# files (the “Software”), to deal in the Software without 
#-# restriction, including without limitation the rights to use, 
#-# copy, modify, merge, publish, distribute, sublicense, and/or 
#-# sell copies of the Software, and to permit persons to whom 
#-# the Software is furnished to do so, subject to the following 
#-# conditions:
#-# 
#-# The above copyright notice and this permission notice shall 
#-# be included in all copies or substantial portions of the Software.
#-# 
#-# THE SOFTWARE IS PROVIDED “AS IS”, WITHOUT WARRANTY OF ANY KIND, 
#-# EXPRESS OR IMPLIED, INCLUDING BUT NOT LIMITED TO THE WARRANTIES 
#-# OF MERCHANTABILITY, FITNESS FOR A PARTICULAR PURPOSE AND 
#-# NONINFRINGEMENT. IN NO EVENT SHALL THE AUTHORS OR COPYRIGHT 
#-# HOLDERS BE LIABLE FOR ANY CLAIM, DAMAGES OR OTHER LIABILITY, 
#-# WHETHER IN AN ACTION OF CONTRACT, TORT OR OTHERWISE, ARISING 
#-# FROM, OUT OF OR IN CONNECTION WITH THE SOFTWARE OR THE USE OR 
#-# OTHER DEALINGS IN THE SOFTWARE.
#-# 
*/
static const char * fish11b_xpm[] = {
"116 42 20 1",
" 	c None",
".	c #16022B253826",
"X	c #180231251E03",
"o	c #000000000000",
"O	c #1E0352494B49",
"+	c #190342482224",
"@	c #2023554A3726",
"#	c #4348756E616B",
"$	c #3E276F6D656C",
"%	c #2A25796E736D",
"&	c #2B25706D3926",
"*	c #22244E492524",
"=	c #3C27686C2124",
"-	c #564A9692B3B5",
";	c #3C278590A7B4",
":	c #1C035F4B716D",
">	c #2023656C796E",
",	c #5C4B9992BDB6",
"<	c #534A9592B1B5",
"1	c #746EB8B69592",
"                                                .....X.                                                             ",
"                                            ....XXX.XX.XXoX                                                         ",
"                                            ....XXXoXooooXo.                                                        ",
"                                            ....XXXoXo.oooooo                                                       ",
"                                            ....XXXoX.o.ooXoooo                                                     ",
"                                           O.+..XXXX.XooXooXXoooooX                                                 ",
"                                        OO+O@@@+X++X+++XooXooXXoooooX                                               ",
"                                     OOO#$%####&&&&OO&@*++XoXoooooooX                                               ",
"                                OOOOO&&&===&&&&=====&&$$%&@++XXoooooX                                               ",
"                            OOOO&$#&&&##-;%X###X$&&OX$&==$$$O@@+*XoooX                                              ",
"                          OO&&=&X===&#XX&==========X==$$#==XO:O%$@OXXX                 ooooooooooo                  ",
"                       >OO*&####&#;;#&==&=##$$&$&%$@#&&X&&#&&X**$$@+XOOOOOOOXX$O#%OOO.XXXooooooooooooooooo          ",
"                     OO*OO&#&X=##&X=&####=&$X=&$==*X&&&&&=&X$$O&XX$$$&#$+@.$O$$;X%%%OO@.XXoooooooooooooooooooooo    ",
"                    O,,,$==;;###===&##%&;;===========&-;:$&&&&X$;;$&$&%$O@&O@#<%;-;%:OOO.X.oooooooooooooooooooooo   ",
"                  O.,11&,#&#&##&&##<;&=X#&===&&=&&&&&&=&X=$;&&&&&&&;;##%@&;X-$#<-%X;>OOO.XXoooooooooooooooooooooooo ",
"                 O@,1oo1&,O%XX&#-;####==###&=#%-;&&;;&=&&&$;&%$;$$#XX;$.#;$X;%;-$;;%>OO..X.XXoooooooooooooooooooooo ",
"               OOO@X;oo1&,*#=&#######-;&##;;=====&&=X=&&##&=&$XX&##&&%&+#%<;-<<X$;X$OOO..XXXXooooooooooooooooooooooo",
"              OOX+@@,;&&,*&#,,;X&##XX##;;#======&&&==&-;$$&==&&=&&&%###;$X$<#;-%-%O%:O...XXooooooooooooooooooooooooo",
"            OOO&&OX=@,,,+X,X=&X=#<;####&&=X=&=XX&$#=X*&=&&&&%&#-;&#;#$$#$$$;X$-<%;O:OOO.XXoooooooooooooooooooooooooo",
"           OX*$&X=$,$=X&&,%X&=X&&#####&===X=;;*X&=$=*===&&&-;&$$&&##X##&#%&#;;<X%$%:OO..XXXXXooooooooooooooooooooooo",
"         OOOOO+&$,O**&&,O##$####;###-#==&;==#&========&%&%%=&&&&&X#&X#%;;#:%;#<$%%:OO..X.Xoooooooooooooooooooooooooo",
"      OOO@**X*&,&&*&&#,=*#$##;##;&==&&;&#;====&=&&&XX=&%&&&===&&&X;&##&&&:   ;$$O@O.....XXXooooooooooooooooooooooooo",
"   OO.O@*O$&&,O&&&&,;;X=&$#XX###=&==X=;&======;;===;;%&&&&=#&=%&&##&&#%$:      OO@O....XXXXooooooooooooooooooooooooo",
" OO@O$#%&*@,O@@&,,,$*@@#OX&$==#==#&=X===XX=$&==X======&==&o%$&-;&==#%$::         O..XXXXXXXXoooooooooooooooooooooooo",
"  O$$###;,&&&&&,$&&*=&=X@&*====X==;;%%=#&#&==============;-&=====&%$::            .XXXoooooooooooooooooooooooooooooo",
";;$%%;%;@&&#&&,$X&#*X**$&#&X=;==%====&=&=$&====X=&&==XX;=====X%%%$&::               XXoooooooooooooooooooooooooooooo",
"#O$;;#$&$&#,$,&&&&$%$=&@*&##*;%===X=========XX&X;;$=;-&&====#;#&&::                   ooooooooooooooooooooooooooooo ",
"###$;O$&O,&&==&&&*===@;;X&#&X======&&===XX==&;;$&========&;;#&&::                       ooooooooooooooooooooooooooo ",
"   ##%%$,&@$$$#$$O$&===&*##&*&;;&=;<;&=&$;&========X===&%##&$::                           ooooooooooooooooooooooooo ",
"       ##OO#&=@&&&&$;;XX=X#&X==##=&&====;;#=======&X;&%$=&%::                                ooooooooooooooooooooo  ",
"         ##$##O$$&*==#;;;*#*;=X=============#%X;;&%;==&&$::                                     oooooooooooooooooo  ",
"            ##&&@%@&===&&=X##;;;;&=Xo&#===X==&##&==&$$$::                                         oooooooooooooooo  ",
"              #$O=#$%#X==#====&&&&;;;-;#&$X;&===&$$$:::                                             ooooooooooooo   ",
"               ####==#$$=#%$&===========&##&#$#$$$::                                                  ooooooooooo   ",
"                  ###########;;#&X&######&&##$O:::                                                       ooooooo    ",
"                    ###;;;###########&&&&###OX..                                                           oooo     ",
"                        ###;;#;#########$$O......                                                                   ",
"                           #######;#&#$..X.......                                                                   ",
"                                       ..........                                                                   ",
"                                       .........                                                                    ",
"                                       ........                                                                     ",
"                                       ......                                                                       "};
