/* XPM */
/* -copyright-
#-# Copyright © 2021 Eric Bina, Dave Black, TJ Phan, 
#-#    Vincent Renardias, Jim Rees, Willem Vermin
#-# 
#-# Permission is hereby granted, free of charge, to any person 
#-# obtaining a copy of this software and associated documentation 
#-# files (the “Software”), to deal in the Software without 
#-# restriction, including without limitation the rights to use, 
#-# copy, modify, merge, publish, distribute, sublicense, and/or 
#-# sell copies of the Software, and to permit persons to whom 
#-# the Software is furnished to do so, subject to the following 
#-# conditions:
#-# 
#-# The above copyright notice and this permission notice shall 
#-# be included in all copies or substantial portions of the Software.
#-# 
#-# THE SOFTWARE IS PROVIDED “AS IS”, WITHOUT WARRANTY OF ANY KIND, 
#-# EXPRESS OR IMPLIED, INCLUDING BUT NOT LIMITED TO THE WARRANTIES 
#-# OF MERCHANTABILITY, FITNESS FOR A PARTICULAR PURPOSE AND 
#-# NONINFRINGEMENT. IN NO EVENT SHALL THE AUTHORS OR COPYRIGHT 
#-# HOLDERS BE LIABLE FOR ANY CLAIM, DAMAGES OR OTHER LIABILITY, 
#-# WHETHER IN AN ACTION OF CONTRACT, TORT OR OTHERWISE, ARISING 
#-# FROM, OUT OF OR IN CONNECTION WITH THE SOFTWARE OR THE USE OR 
#-# OTHER DEALINGS IN THE SOFTWARE.
#-# 
*/
static const char * fish22a_xpm[] = {
"63 57 16 1",
" 	c None",
".	c #8890A2B3766E",
"X	c #746E8E915B4B",
"o	c #5A4A656C3A27",
"O	c #716D6B6D544A",
"+	c #8D917A6E3926",
"@	c #A7B4A3B3606B",
"#	c #8490B1B59892",
"$	c #B2B5C7D8828F",
"%	c #A6B4DADAA4B3",
"&	c #9A929A923F27",
"*	c #B9B6C3D7626B",
"=	c #3F2737263025",
"-	c #C3D7C4D78F91",
";	c #BAB6AEB53626",
":	c #8E91BBB6ADB5",
"                                                               ",
"                        .XX.X.X....                            ",
"                      ..X....X....XoO                          ",
"                     ..X..X.oXX+OoX.XXX.                       ",
"                   ...X.@oXX@X...XXOooXX+                      ",
"                  X#XXo@.$..$@X+XXOoooXXXX.                    ",
"                OXXXX.%$XXX++$.$@$$#XOooXX+O                   ",
"                X....XO++&$$$@+++++X.XXooXXX+                  ",
"               X..XOoX@$$.+&+++@$$.$@@XXoXXX++.                ",
"              ..OooX$$XX++++&$$@+++++XXXXOoOoX+O               ",
"             ooo&..Xooo+*$$$@++++&@$$$@@.XoXXX+++O             ",
"            =oooooooo+Xooo++++@--%@+X+XXXXXooo+ooooO           ",
"           .==oooo+X&...@&XX+++++X++X++++XooXoX+oooooo         ",
"          ==oooooooooooo+@.$**.@+&X.%$@$$@@XXooX+oooo          ",
"         =======ooo+@@@&@++++++@$$$+&@$+++XXoXoo+ooO           ",
"        ===oo=ooo&XX+++++&@*@&+++++++++++$$.oXoooo.            ",
"       ===+oooo+ooo++++&@&+++&$$$$@@$@++&X+.XOooo              ",
"       =====oooooo+&&@@++++++++&&&@&@$-@$%X.XXoo.              ",
"      ===oo+oXoo+&&X+++++++@&+&&&&&++++X+@XX+Xo.               ",
"      ===oooooo@X++++++&@*@&+&@&&@@&$@&X+++@XXO                ",
"     ==oo+Xoo+@+o+++&&&&&+&+++;&&&++&&$$X$@+.X                 ",
"     ==oooo+@+oo++&;&++++++&&&&@@@@&&++++X@Xo.                 ",
"    ==o=oX+ooo+&&&&++++&&&&&&&&&&&&&&&+++++@o                  ",
"    ===ooo+oo++++&&+&&&&&&&&&&&&&&&&@&&&+&&&X     .XXXXoooo.   ",
"   ===;;=XoX&++++&&;&&+&&;;&&;;;&&&&&&;&&++++o#OOX@XXXoo@@ooO  ",
"   ==;==%XoX+@+++&&&;&&;;;;;&;;;;;;&;&&&&&&@X+$oo@XXo@+@ooooo  ",
"   ==;==%o++X+&++&&&&&;;;;;&&&;;;;;;*;;@&;;&++@oo+XXXXoooooo=  ",
"  ===o;%o@&+@+@++&;;&&&;;;;;&;;;;;&;;;;;&;;;&+&oo@&XXo@o@o@oo  ",
"  =oo===o@@&&&&++&&;;&;;;;;;;;;;;;*;;;;&+&&;&+&ooX@X+ooooooo=  ",
" ==ooXoo&&&&&@;&+&&;+;;;;;;;;;;;;;*;;;;;&&;&++&oooXX+@o@o@ooO  ",
"  +=oo+o&&&;&*;;+&;;;&;;;;;;;;;;;;;&;;;&++&&++@ooooX@+ooooooO  ",
" =o+oooo@@&&**;=++++&&;;;;;;;;;;;;;&;&&&+&;*-@%ooooo+o@oooo==  ",
"  =oooo@&@@;*;=o++++++;;;;;;;;;;;;;&;&&&+@-&&&$  .o++X+o@@oo.  ",
"   =ooo@@+&*;&=o++++++;;;;;;;;;;**@&&&;*$+&&@&#o.  .&+++oooo   ",
"    =oo&@&@;;+;=o+++++;;;;;;;;*;;;&&&@@@+@@*.X#oo$   .&+oo+o   ",
"     =o&@&;;&+;=o+++++;;;;;*;;;;&;;&&$$++&++o.Xo=@$    .Xoo.   ",
"      =+@;;;&&;&o+++++;;;;;;&&;;&&*&&+@*%X$.oXoo=+&$           ",
"       oo+&&+&&&+++++;;;;;;;;;$**$%-$%%$XoXXX.===+&&$          ",
"        =o+++&&;&++&+;;$*;;;-@*$$@@++&X@.XoooX#==o+@&          ",
"         =o+++&;;;&&&;;;;*;;&+&+;*$$+&+*.%#oooO==o+++X         ",
"          .o++++&;;;;;;;;;$%$**$@$%%%%.oooX#..O==ooo&+         ",
"            oo+&&&&&**&$$@;@$$-%%X+OO+..Xoooooo=ooo++          ",
"             ++&++;&@@@&&%%.@+++@$.$#ooX###X#.===o+X           ",
"              X+@&+@$$%%%@%%%%%%%@.%%.OooooXX===X+O            ",
"              $ooo@+&@.+++O+XX@.OXooX#%:##.X==oooO             ",
"              O$o=.+&.*$$$$**....%#XoooooOXOo=ooO              ",
"               o$= O&.%.XX.$.%%%###:%###%X===ooO               ",
"               ===  Ooo....XXXoooXooX#XooOooOoO                ",
"                ==   XooXX..%%%%%%.oooX#Xo===O                 ",
"                O=   =XooooooXoXoO#::#X==OOoO                  ",
"                 ==  = O XOoooXoXo=o==Oo===                    ",
"                 Oo  =   .oOo==Oo==OXXooo.                     ",
"                  +   O      OOooo=o =o.                       ",
"                  OO                                           ",
"                   o                                           ",
"                    .                                          ",
"                                                               "};
