/* XPM */
/* -copyright-
#-# Copyright © 2021 Eric Bina, Dave Black, TJ Phan, 
#-#    Vincent Renardias, Jim Rees, Willem Vermin
#-# 
#-# Permission is hereby granted, free of charge, to any person 
#-# obtaining a copy of this software and associated documentation 
#-# files (the “Software”), to deal in the Software without 
#-# restriction, including without limitation the rights to use, 
#-# copy, modify, merge, publish, distribute, sublicense, and/or 
#-# sell copies of the Software, and to permit persons to whom 
#-# the Software is furnished to do so, subject to the following 
#-# conditions:
#-# 
#-# The above copyright notice and this permission notice shall 
#-# be included in all copies or substantial portions of the Software.
#-# 
#-# THE SOFTWARE IS PROVIDED “AS IS”, WITHOUT WARRANTY OF ANY KIND, 
#-# EXPRESS OR IMPLIED, INCLUDING BUT NOT LIMITED TO THE WARRANTIES 
#-# OF MERCHANTABILITY, FITNESS FOR A PARTICULAR PURPOSE AND 
#-# NONINFRINGEMENT. IN NO EVENT SHALL THE AUTHORS OR COPYRIGHT 
#-# HOLDERS BE LIABLE FOR ANY CLAIM, DAMAGES OR OTHER LIABILITY, 
#-# WHETHER IN AN ACTION OF CONTRACT, TORT OR OTHERWISE, ARISING 
#-# FROM, OUT OF OR IN CONNECTION WITH THE SOFTWARE OR THE USE OR 
#-# OTHER DEALINGS IN THE SOFTWARE.
#-# 
*/
static const char * fish08a_xpm[] = {
"91 70 20 1",
" 	c None",
".	c #46487F6F736D",
"X	c #504999929191",
"o	c #3C276D6D606B",
"O	c #070013020600",
"+	c #4448786E6B6D",
"@	c #6D6DA3B39992",
"#	c #8590B4B5B3B5",
"$	c #5A4A8E91706D",
"%	c #242452494047",
"&	c #50498590796E",
"*	c #3826626B4948",
"=	c #242448482424",
"-	c #180234261D03",
";	c #9992C0D7BEB7",
":	c #A1B3C2D7BEB7",
">	c #584A808F5249",
",	c #B9B6C2D7BAB6",
"<	c #2E255F4B2624",
"1	c #6D6D9A92716D",
"                                                                                           ",
"                                                                                           ",
"                                       ..      X                                           ",
"                                 o   O+o   XX@@    X@@@@X                                  ",
"                                oO  Oo   X@Xo   @@@@##@#@@$XXXXXXX                         ",
"                                OOoOOo%%OOOOOo@@@@@@@@@&*%=OOOOOOOOOO*.                    ",
"                            o oOOOOOOOOOOO-o&@@#@@@@@#@+%-OOOOOOOOOOOOOo.                  ",
"                            *oOOOOOOOOOOO*X@@@#####@@@X*-OOOOOOOOOOOOOOO%o                 ",
"                           .*OOOOOOOOOOO-@@#####@@@@@@.*-OOOOOOOOOOOOOOOO=o                ",
"                           &OOOOOOOOOOOO+@##@#@@####@@o-OOOOOOOOOOOOOOOOOO-%               ",
"                          XOOOOOOOOOOOO-@@#;;;;;@####X=OOOOOOOOOOOOOOOOOOOOO*o             ",
"                          XOOOOOOOOOOOOO@#;:;;@##;#;@%-OOOOOOOOOOOOOOOOOOOOOOo.            ",
"                         @@OOOOOOOOOOOO-@;;##@;:;;:#X-OOOOOOOOOOOOOOOOOOOOOOOO%            ",
"                        @#>OOOOOOOOOOOO-@@;;;;;;:@$@@OOOOOOOOOOOO-*OOOOOOOOOOO-o           ",
"                       X##*OOOOOOOOOOOOO@,;,;:#@@,,@*OOOOOOOOOOOO-.OOOOOOOOOOOO%*          ",
"                      %#;#*OOOOOOOOOOOO-#,#$@@@:;@.@-OOOOOOOOOOOO%$-OOOOOOO-OOOO%o         ",
"                     O>#;;*OOOOOOOOOOOO-@#@;;;,@@@:#-OOOOOOOOOOOO%@*OOOOOOO-OOOO-o         ",
"                    OO@#:#=OOOOOOOOOOOO-#;:;@$$#:;#*OOOOOOOOOOOOO*@+OOOOOOOO-OOOO%         ",
"                   OO*#;;#*OOOOOOOOOOOO-@@$@;;;@@@@%OOOOOOOOOOOOO*@.-OOOOOOO%OOOO%*        ",
"                  OOO@:;:#-OOOOOOOOOOOO-@;;#$@$;:;#-OOOOOOOOOOOOOo@+OOOOOOOO%%OOOO%        ",
"                 OOO-#;::#%OOOOOOOOOOOOo;@o@:;:#;;@-OOOOOOOOOOOOO.X+OOOOOOOOO*-OOO*o       ",
"                OOOO@;:::;=OOOOOOOOOOOO%&@##$$@@@@$-OOOOOOOOOOOOO@@&-OOOOOOOO%*OOO-o       ",
"                OOO-@;;;;#<OOOOOOOOOOOO*##@o;#;;#@$-OOOOOOOOOOOO-@@X%OOOOOOOO-o%OOO*       ",
"               %OOOo#;:;;;*OOOOOOOOOOOO*$$@;;.++$$oOOOOOOOOOOOOO*@@@+-OOOOOOOO=oOOO-       ",
"              %OOOO@;;:;:1=OOOOOOOOOOOO%#;@o*@;;##@-OOOOOOOOOOOO+XXX.-OOOOOOOO-o%OOO       ",
"             %OOOOo1#;;;:#*OOOOOOOOOOOO+o*+###$*o$o-OOOOOOOOOOOO@@@@X%OOOOOOOO-*oOO        ",
"             %OOO-@1#;;#:1=OOOOOOOOOOO%%@#;#@%$####oOOOOOOOOOOOO.X..&*OOOOOOOO-%oO         ",
"            %OOOOo@1###;;#*OOOOOOOOOOOO@#@$*+##@oo*=OOOOOOOOOOOOX@@X$*OOOOOOOOO%o          ",
"           %OOOO-@1###;#::$OOOOOOOOOOOo@o$@#@oo$@@@*OOOOOOOOOOO%.&$$X+OOOOOOOOOo           ",
"          .%OOOO+@###;#;:#*OOOOOOOOOOO%+###@%@;#@@@+-OOOOOOOOOO*+&.&$.-OOOOOOOO        OO  ",
"         X+OOOO-@##;;;;#;:+OOOOOOOOOOO*#@&.o@#$***%-OOOOOOOOOOO*.$X@$.%OOOOOOO       OOOOo ",
"        +%==--Oo#;#;:;>#;;*OOOOOOOOOOO*@#;;##@@@@@#$-OOOOOOOOOO.X$&+o+=OOOOOO       oOOOO% ",
"       o*=<=<o=+#;;;;;@1::*OOOOOOOOOOO*o.oo@#@$*.@@@*OOOOOOOOOO*&@@@@XoOOOOO      .ooOOOO- ",
"      o**<O$$$**@##;;;#$;:*OOOOOOOOOOO*@#@$*-.@@$*==-OOOOOOOOOO*@@&&.+*OOOO      %%**OOOO-.",
"     oo%><OO$*$o@#;;;#@=:;1OOOOOOOOOOO*@##@@@**o@@@@*OOOOOOOOOO*@@@@@@+OOOOOOOOOOO-%%OOOOO.",
"   *<*+*><OO<*oo,#;;###=::;-OOOOOOOOOO=-$@@@@@@*=%+@.OOOOOOOOOOO*+oo++oOOOOOOOOOO--%%-OOOO%",
"  *>>>>$=<<<=oo*@#####@=;;:=OOOOOOOOO-$#$.*%+@@@$&o**OOOOOOOOOO-$@@&+**-OOOOOOOOO--=%-OOOO=",
"oo$$11$$*===O==$######@-;;:#OOOOOOOOOO*@@#@&***%o@@@@*OOOOOOOOOO%**.$+%-OOOOOOO-OOO-<-OOOO-",
"@@@@@@@@@>OOO-1@@@#####%#;;;OOOOOOOOOOo-%.@@@@@$*=--*&-OOOOOOOOO%&&*-oo-%OOOOOOOOOO-=OOOOO-",
"@@@@@@@@@@OOO%$@@@#@###%@###-OOOOOOOO=@@$**%oo$X@@@1+%-OOOOOOOOO-%*+o*%o=OOOOOOOOO---OOOOOo",
" *X@@&$@@@OOO-.@@@@@###%+###*OOOOOOOO*@@@#@&>&=-%%o$@@*OOOOOOOOO=o%-%.%--OOOOOO-OO-=OOOOOO ",
"  ***+$$@@-OOO&@@@@@##@%&#@#&OOOOOOOOO**+@@@@@@&o+%%%%%-OOOOOOOOO=%*=%%=OOOOOOOOOO--OOOOO% ",
"    ++++&$%OOO+@@@@@@@X%$##@@OOOOOOOO%@@$%%+...$$X&@$$*-OOOOOOOOO=--====OOOOOOOOO-%OOOOOO  ",
"     +++++*OOO*XX@@@@$%1@@@##*OOOOOOO-@@#@@+*%%%=%*o+.+o-OOOOOOOO-%%%%=-OOO OOOOO--OOOOO-  ",
"      oooo*OOO-.$@@@@-$$@$@@;@OOOOOOOO%&@@X@@@@@+oo%%---OOOOOOOOOO====-OOOO   OO-%OOOOOO   ",
"       o%%%*OO-+$X@$-o+$$.&$##OOOOOOOO%*o*o+$X&$++.&&>+&%OOOOOOOO-%%===-OOO-   %=%OOOOO%   ",
"         %%%OOO%++.=o&$$&++o&@%OOOOOOO=&@@@oo*%%==%%%*o+*=OOOOOOOO=%%%=-OOOO-   o-OOOO-    ",
"          %%-OO-%o-o+&X&$+%%o+o-OOOOOOO%o+.$@$X+o+o+%*%%%=OOOOOOOO%%*=o-OOOO-%  oOOOOO     ",
"            -OOO%%%$$X@@@@*==%o-OOOOOOO*ooo***o**+o$&X++++%-OOOOOO=%=%*-OOO-=%O  OOOO      ",
"             -OOO-.&$X@@@@ooo%%=OOOOOOO%$@X@++%%%==%*%%%%%-OOOOOOO==%o*-OOO-%oOO  OO*      ",
"              OOO%+..o+++&*%%*o%OOOOOOO=+..X&.&..o$.X.++o+%%OOOOOOO%oo%-OOO-%OOO   o       ",
"               OO=*++$XX@$$oo*=%OOOOOOOO%%%%*o++o*+.&oo%%%==OOOOOOO%oo=-OOO=-OOOO          ",
"                %%%*++o++$X%++o%OOOOOOO-*.$&.**%%oo+*%%%%%%%=-OOOOO=%%%-OO-=OOOOO          ",
"                  %%%o+o&o*=**oo-OOOOOOO=+&+.o.oo$+&o+ooo%%%=OOOOOO--%%-OO=-OOOO-          ",
"                   %%%oo*.&*%*%%=OOOOOOOO=%*%%%**%%%%%*%**%%<=-OOOOO---OO=%OOOOO-          ",
"                     %%%+o*%%*%%*OOOOOOOOO%o*o%o%%o%%%*o%%%%**%=-OOOOOOO-%OOOOO--          ",
"                      %%%o+o<<==%=OOOOOOOO=*%%%%%*%*%%**%%%%%%==OOOOOOOO-OOOOOO-           ",
"                        o*&+%-----OOOOOOOOO=<<**%*%*%%%%***%%o%=--OOOOO-OOOOOO--           ",
"                         $$@.%*-OOOOOOOOOOOO--==<<%%%%o%o*oo%%%%--OOOOOOOOOOOO-            ",
"                          $$+%%-OOOOOOOOOOOOOOOOO-=%%%%%%%**oo%%--OOOOOOOOOOO-             ",
"                           **%=-OOOOOOOOOO  -----OOO-=%%%*%*%%%%--OOOOOOOOOO-              ",
"                            *o*OOOOOOOOOOOO       --OOO--%%%%%%%-OOOOOOOOOO--              ",
"                            **+%OOOOOOOOOOO          --OOOOOOOOOOOOOOOOOO---               ",
"                             **o%OOOOOOOOOO            ----OOOOOOOOOOOO----                ",
"                              **%=OOOOO-OOO                -------O-----                   ",
"                               %%*-OOOOO                      -------                      ",
"                                %%%OOOOO                         --                        ",
"                                  %%OOOO                                                   ",
"                                     OO                                                    ",
"                                                                                           "};
