/* XPM */
/* -copyright-
#-# Copyright © 2021 Eric Bina, Dave Black, TJ Phan, 
#-#    Vincent Renardias, Jim Rees, Willem Vermin
#-# 
#-# Permission is hereby granted, free of charge, to any person 
#-# obtaining a copy of this software and associated documentation 
#-# files (the “Software”), to deal in the Software without 
#-# restriction, including without limitation the rights to use, 
#-# copy, modify, merge, publish, distribute, sublicense, and/or 
#-# sell copies of the Software, and to permit persons to whom 
#-# the Software is furnished to do so, subject to the following 
#-# conditions:
#-# 
#-# The above copyright notice and this permission notice shall 
#-# be included in all copies or substantial portions of the Software.
#-# 
#-# THE SOFTWARE IS PROVIDED “AS IS”, WITHOUT WARRANTY OF ANY KIND, 
#-# EXPRESS OR IMPLIED, INCLUDING BUT NOT LIMITED TO THE WARRANTIES 
#-# OF MERCHANTABILITY, FITNESS FOR A PARTICULAR PURPOSE AND 
#-# NONINFRINGEMENT. IN NO EVENT SHALL THE AUTHORS OR COPYRIGHT 
#-# HOLDERS BE LIABLE FOR ANY CLAIM, DAMAGES OR OTHER LIABILITY, 
#-# WHETHER IN AN ACTION OF CONTRACT, TORT OR OTHERWISE, ARISING 
#-# FROM, OUT OF OR IN CONNECTION WITH THE SOFTWARE OR THE USE OR 
#-# OTHER DEALINGS IN THE SOFTWARE.
#-# 
*/
static const char * fish28a_xpm[] = {
"64 64 13 1",
" 	c None",
".	c #F8FE0000F9FE",
"X	c #B6B60000A7B4",
"o	c #C5D700003426",
"O	c #FFFFFFFFFFFF",
"+	c #FFFFD0D90000",
"@	c #646CA1B30000",
"#	c #00000000564A",
"$	c #2F256F6DEDFC",
"%	c #FFFF00000000",
"&	c #0000E7FCFFFF",
"*	c #000000000000",
"=	c #3E273E279091",
"                                                                ",
"                                                                ",
"                                                                ",
"                                                                ",
"          ..XXo                                                 ",
"          OO..XXoo                                             +",
"          OO  .XXoo                                           ++",
"         OO    .XXoo                                        @@+ ",
"         OO   OO.XXoo                                      @@++ ",
"         O   OOOO.XXoo                                     @+++ ",
"        OO   OOO  .XXoo                                   @@#++ ",
"            OO    O.XXoo                                  @#+++ ",
"                 OOO.Xoo                                  @@++  ",
"                 OOO XXoo                                $#+++  ",
"                OOO   XXoo                               $@#++  ",
"                O   OO.XXoo                  %          $$@#++  ",
"                    OOO.XXoo                %%          $@#+++  ",
"                   OOO  .XXo                .+          $@@++   ",
"                  OO   OO.Xoo               .+          $@@#+   ",
"                       OO.XXoo             ..+         $$@##+   ",
"                      OOO .Xooo            .#+         $##+++   ",
"                     OOO  OXooooo          ##+         $@@+++   ",
"                         OO.Xooooooooooo   ##+        $$@@+++   ",
"                        OOO.XXoooooooooo  ###.        $@@@##+   ",
"                        OO O.Xooooo&&oo  ######       $###+++   ",
"                          OO Xoooo&**&o##########    $$@@@+++   ",
"                          O OOXXooo&&ooo==========   $@@@@+++   ",
"                           OOOO.Xooooooo=========== $$@@@###+   ",
"                             O O...ooooo===========$$####@+++   ",
"                           %%%%O%O..ooooo$$$$$$$$$$$@@@@@@+++   ",
"                        %%%%%%%%%O..Xooooo$+++$++$++$++++++++   ",
"             %%      %%%%%%%%%%%%%%..Xoooo++$++$+$++$++#####+   ",
"              %% %%%%%%%%%%%%%%%OO%..ooooo$$$$$$$$$$@@@@@@+++   ",
"               %%%%%%%%%      O%%O..oooooo$$$$$$$$$$@@@@@@++++  ",
"                            OOOO...ooooooo&&&&&&&&&$$$@@@@++++  ",
"                            OO .XXooooooo &&&&&&   $$$@#@####+  ",
"                          O OO.XXooooooo             $$@@@++++  ",
"                          O  .XXoooooo                $$@@@+++  ",
"                          OO.XXoooooo                  $@@@+++  ",
"                        OO .XXooooooo                  $###+++  ",
"                        OOO.Xooooooo                   $@@@##+  ",
"                      O  OOXXoooo                      $$@@+++  ",
"                      OO  .Xoooo                       $$@@+++  ",
"                    O  OO.XXooo                         $@#+++  ",
"                    O   O.Xooo                          $@@+++  ",
"                    OO  .Xooo                           $$@##+  ",
"                 OO  OO.Xooo                               @+#+ ",
"                  OO O.XXoo                                @+++ ",
"              O   OO  XXoo                                 @+++ ",
"              OO   OO.Xoo                                  #@++ ",
"              OOO  O.Xoo                                   @#++ ",
"               OOO .XXo                                     @++ ",
"           OO   OO.XXoo                                     @## ",
"           OO   O.XXoo                                      @@++",
"            OOO .XXo                                           +",
"             OO.XXoo                                            ",
"             OXXXo                                              ",
"            .XXo                                                ",
"           .X                                                   ",
"                                                                ",
"                                                                ",
"                                                                ",
"                                                                ",
"                                                                "};
