/* XPM */
/* -copyright-
#-# Copyright © 2021 Eric Bina, Dave Black, TJ Phan, 
#-#    Vincent Renardias, Jim Rees, Willem Vermin
#-# 
#-# Permission is hereby granted, free of charge, to any person 
#-# obtaining a copy of this software and associated documentation 
#-# files (the “Software”), to deal in the Software without 
#-# restriction, including without limitation the rights to use, 
#-# copy, modify, merge, publish, distribute, sublicense, and/or 
#-# sell copies of the Software, and to permit persons to whom 
#-# the Software is furnished to do so, subject to the following 
#-# conditions:
#-# 
#-# The above copyright notice and this permission notice shall 
#-# be included in all copies or substantial portions of the Software.
#-# 
#-# THE SOFTWARE IS PROVIDED “AS IS”, WITHOUT WARRANTY OF ANY KIND, 
#-# EXPRESS OR IMPLIED, INCLUDING BUT NOT LIMITED TO THE WARRANTIES 
#-# OF MERCHANTABILITY, FITNESS FOR A PARTICULAR PURPOSE AND 
#-# NONINFRINGEMENT. IN NO EVENT SHALL THE AUTHORS OR COPYRIGHT 
#-# HOLDERS BE LIABLE FOR ANY CLAIM, DAMAGES OR OTHER LIABILITY, 
#-# WHETHER IN AN ACTION OF CONTRACT, TORT OR OTHERWISE, ARISING 
#-# FROM, OUT OF OR IN CONNECTION WITH THE SOFTWARE OR THE USE OR 
#-# OTHER DEALINGS IN THE SOFTWARE.
#-# 
*/
static const char * fish06a_xpm[] = {
"93 44 15 1",
" 	c None",
".	c #222424241001",
"X	c #474840471102",
"o	c #322634261B03",
"O	c #474845481B03",
"+	c #150218020800",
"@	c #222421240A01",
"#	c #504952492A25",
"$	c #09010D010300",
"%	c #686C606B1E03",
"&	c #6E6D696C2624",
"*	c #84907D6F4047",
"=	c #6B6D696C3426",
"-	c #9C929892646C",
";	c #5049646C4047",
"                                                                                             ",
"                                                                                             ",
"                                                                                             ",
"                                                                                             ",
"                                           .  XXX                                            ",
"                                        ...o..XOXX                                           ",
"                                     ......+...XXXX   XX                                     ",
"                                   .@@..+......oXOOXX@XXXX                                   ",
"                                 .@@.@.oo..o.#.....@.XoXXXXX                     $$$$        ",
"                                .@@oo.o.OOOo......o.@.....XXXX                 ..$$$$$$      ",
"                              .+@oO.OO#Oo.oo.@.Oo@$@@oo.....XXXX             $$....$$$$$$    ",
"                             .+...O.Ooo%@%.XoOo+@@.ooo@o.ooo.XX......  @@   @$$....+.$$$$    ",
"                            .@....O@O.oO.O.Oo.oO.Ooooo...o@.@.@.@....@...@@..o.o.o.....$$$   ",
"                           ....@o.O.o....o@OO.Oo+OO..oo..+..$..$+@$+@.$$@@..$.o.$ooO...$$$   ",
"                         ..@@..@@@...@...o....@@.@@.@@...@..$@.$$+.++@@@+@.OX@.o..@..o@@$$$  ",
"                        $$$$$$$$$$$$$$$$$+$+$+.@@+@+@++@@@+++@$$.+$$$$$+oo.o#oo@o.o@...@+$$  ",
"                  $$$$$$$$$$$$$$$$$$$$$$$$$$$$$$$$$$++.+$$$$$+$$+$++$$+.OXo.@@.@.@.O@oo@@@$@ ",
"          $$$$$$$$$$$$$$$$$$$$$$$$$$$$$$$$$$$$$$$$$$$$$$$$$+@@@@++$$$@.+@+.OooOO..o.@.X@@@@@ ",
"      $$$$$$$$$$$$$$$$$$$$$$$$$$$$$$$$$$$$$$$$$$$$$$$$$$$$$$$$$$$$+@@@@X..X.@.@.@X@.@OX@XX@@@",
"   $$$$$$$$$$$$$$$$$$$$$$$$$$$$$$$$$$$$$$$$$$$$+$$$$$$$$$$$+$$+@$@@@@XX.@@@.XXOOX.O@@.@@@@@@@",
"$$$$$+$$$$$$$$$$$$$$$$$$+$$$$$$$$$$$$$$$+$$$+++@$+$+$+$+$++@$@+@@@@@@@X@X@@X@@.X@@..X@@oX@@@@",
"@@@+@++$$$$++@@++$$+@+$$$$$$++++$$$$$$+$++@+@@@+@+@++@@@@@@+@@@@X@X.XXXXXX@.XX.o%@+..X@XXX@X@",
"@@@@X@%%%%$@@X.@@@$XX@+$+$$++@++++++@+@+@+@+@@@+@@@+@@@@@@@@@@@@@X@X@XX.@@@X+@.X@.X@@OX@@XXX.",
"@.XXXX$$$$.@+++$@@$XXX@@@+++@+@@+@@@+@@@@@@@@@@@@@@@@@@@.@@@@@@@.@@@.XXXXX...@OX@@@..@@XXX@@@",
" @XXXX&$$&*@$++$$$$%@@@@++++@@@.@@.@@++++++@@@@@..@@@@@@@@@@@@@X@.X@X@@@@@@$X@o@@OX@@OX.X@@@@",
"  XX%&&****@.XX$$XXX@@@@++$+@@@@@@@.@.@X.@.@.@.@@@+@@@+@@@@+@+.@.@X.XXXXXXoX.@.o@@@.@@.@..@@ ",
"   X%%%%&&XX%%%$XXXX@@@@@@@@@@@@+@@.XXXXXXX.@XXXX.XXXXXXXXX.X@@X@@XXXXXXXX+X+.@.O.@..@@@@$   ",
"    %%%%&X%%&&%$X%X@@@@@...@...@@@.XXX@+@.X@.XXOO@.XXX@.XXXXXXXXXXX.XOXXXXXXXX.@...oo.oo.$$  ",
"     %%&%X%=&&&$%%XXXXXX......X..@@XXX@@XXX@@XXXX@@@X@@@O@XXXXXXOXXXXXXXXX.X.XX@.o@ooo.o.$$$ ",
"      %%&%%%%%%$%%%XXXXXXXXXXXXXX.OXXX@@XXX@@XXXX@@XXOXXXXXXXXXXXXXXXXXXXOOXX....oo.@.oo.$$$ ",
"       %=%%%%%$%%%%%XXXXXXXXXXXXXXXXXXXXXXXX@%XXXX@XXOXOXXXXXXXXXXXXOXXOXX.@.O.ooo..o.o.$$$  ",
"         =%%%%%%--%%XXXXXXXXXXXXX%%X%X%XX&%%X&&%%XXXXX%X%X%X%XXXXXXXO.OXXXXooo@..OO.+..$$$$  ",
"           %%%=*-*%%%XXXXXXXXXX%%X%%%%%&%&%&&%&&&&&%%X%&%%%%%%X%XXXXXXXXXOOOo...o..o@+$$$$   ",
"             %%**=%%%%%X%%%X%%%%%%%%%%%%%=%&%&&&&&&&&&%%%%XXXXXXX        ........o.$$$$$$    ",
"               **%%%%%%&%%%%%%%%%%%&%%%=&==&=&&&&&%&&%XXXXXXX              ..$$$.$+$$$$$$    ",
"                 *%%%%%%%%%%%%%%%==&%&&&&&*&&&%XXXXXXXXXXX                   .$$$$$$$$$$     ",
"                    %%%%%%%%%%%%=*==&&&&&&&&%XXXXX                            $$$$$$$$$      ",
"                         %%%%%%%%&&==&%&&&&&%                                   $$$$$$       ",
"                                &&&&&&&&&==%%;                                     $$        ",
"                                      =&&&&&&&&&=                                            ",
"                                             &&&                                             ",
"                                                                                             ",
"                                                                                             ",
"                                                                                             "};
