/* XPM */
/* -copyright-
#-# Copyright © 2021 Eric Bina, Dave Black, TJ Phan, 
#-#    Vincent Renardias, Jim Rees, Willem Vermin
#-# 
#-# Permission is hereby granted, free of charge, to any person 
#-# obtaining a copy of this software and associated documentation 
#-# files (the “Software”), to deal in the Software without 
#-# restriction, including without limitation the rights to use, 
#-# copy, modify, merge, publish, distribute, sublicense, and/or 
#-# sell copies of the Software, and to permit persons to whom 
#-# the Software is furnished to do so, subject to the following 
#-# conditions:
#-# 
#-# The above copyright notice and this permission notice shall 
#-# be included in all copies or substantial portions of the Software.
#-# 
#-# THE SOFTWARE IS PROVIDED “AS IS”, WITHOUT WARRANTY OF ANY KIND, 
#-# EXPRESS OR IMPLIED, INCLUDING BUT NOT LIMITED TO THE WARRANTIES 
#-# OF MERCHANTABILITY, FITNESS FOR A PARTICULAR PURPOSE AND 
#-# NONINFRINGEMENT. IN NO EVENT SHALL THE AUTHORS OR COPYRIGHT 
#-# HOLDERS BE LIABLE FOR ANY CLAIM, DAMAGES OR OTHER LIABILITY, 
#-# WHETHER IN AN ACTION OF CONTRACT, TORT OR OTHERWISE, ARISING 
#-# FROM, OUT OF OR IN CONNECTION WITH THE SOFTWARE OR THE USE OR 
#-# OTHER DEALINGS IN THE SOFTWARE.
#-# 
*/
static const char * fish20a_xpm[] = {
"62 50 15 1",
" 	c None",
".	c #1F031F030000",
"X	c #E0FBE9FCC3D7",
"o	c #9892C0D78F91",
"O	c #8F91A6B40000",
"+	c #DEDADADA3926",
"@	c #8B904B490000",
"#	c #9D93AFB54648",
"$	c #E4FBB3B54248",
"%	c #C0D794910000",
"&	c #8E919B92BBB6",
"*	c #D2D9C0D7ECFC",
"=	c #3F273F279C92",
"-	c #92914848ACB4",
";	c #CBD8A4B3B5B6",
"                                                              ",
"                                                              ",
"                            .  ...                            ",
"                          ... ...  ..                         ",
"                         .......  ..                          ",
"                      . ..XXXXX. ... ...                      ",
"                     ....XXoXXXXXXXX...                       ",
"                   . ..Oo+oo+oo+ooooXXX...                    ",
"                   .@@#o$+$$%$+%+$$$$oooXX...                 ",
"                  ..oo+$$$$+$$+$$$%$+$$$ooXXX...              ",
"                  .oo$$+@$$@#$$@$+#$$+$$$$oooXX..             ",
"                 ..o$+$$$+#$$+$#+$#@#$$%####$@@X..            ",
"                .@##$$$.$$#.##$##$##+#$+#%#%#%%@X..           ",
"               X.#$+#$+#$#+#$#.#+.#####@##%#%%%%@X..          ",
"              @X@###$##$###.$##$#+##$+#$#%#%#%#%%@X..         ",
"             @XX@o$$#$+#.#$#+#$+.##.#+.#+#%@%%#%%%@X.         ",
"            @#XX@####.##+##+#.##$+#$#$$$#.#%%#%%%%@X..        ",
"            @#XXo#oo##$+##$.+###+##+.##+#%#%%%@%%%%@X.        ",
"           ###XXoo#o#+##.#+##.#.#..###.#.+%.#%%%%%%@X..       ",
"          ####XXXoooo#.#####.+####+##+###%.#%%%%%%%@X..       ",
"          ####XXXo###o##+#.+###.#.#.#..#%++%%.#%@%%@X..       ",
"         @@##XXXXoo######.##+.#+#######+.#.##%%%%%%@X..       ",
"        &@#@#XXXXo#o#o#+.+#.#%%##+........#%.%.%%%%@X..       ",
"       #&@@#@XXXXoo##oo.###%%%%...##++##+#.##.%%@%%@X..       ",
"      #&.X.@#XXXXoooo####+%%%%##+#...#.#.%....#.%%%@X..   XX  ",
"     .....X.@XXXXo####o+%%%%%%+...##..#.%.%.#.#%#%@X..   XXX  ",
"     X..X.X.XXXX*oo#o##%%%%%%%.#+#..##+%.%.@.@.%.@X@.  @*XXX  ",
"   ...X...X.XXX*..####o%%%%%%#+#..#+%.%.%.%%#@@@%@@. ...XXXXX ",
" ...==X..X..XXXo*.#o#o@%%%%%%+#.##%#.#.%%#%..@..@@  .@..XX*XX ",
"   ...=X....XXX*o.###@%%%%%%%..#+#.#.%+%.%.@@.@@..@@@@..XX+XX ",
" ......X....XXoo*..#@%%%@%%%.+##+.%.#%..%.%%%@@@.@@@@..#+XXXX ",
"  ...X.X....XXooo..#.@%@%%%%###.#.+#%%.%#%.%@.@@@@@@@..XX++XX ",
"    .X.X....XXo#..##...%%@%#+#.#.#%.%.%%.%.@@....@@@@..XX++XX ",
"     X.X....XX#..##%%%.%@%+#.#.%#%.#.%#.%.%@@.@@@@@@@..XXX*XX ",
"      ..X...*X..@#%%%%.@%%%.%.%%.%.%%%.%%.%..@...@@@@..oX*XXX ",
"        X...X.&-O%%%##%%%.%.%%%.%.%%..%.%%.@@@.@.@@@@..oXXXXX ",
"         ....X*########%.%.%%.%.%%..%%%%%.@@%.@... .@..;XXXX  ",
"          ..XX*######@@.%%%%.%.%%.%%%.%..%@..@@@... @..OXX*X  ",
"            @X**####@@%%%%.%.%%%.%%%.%.%@%.@.@...... .o;##X   ",
"             ****#@@@@@@%.%.@@%.%..@..@@%.@%@...@...  o;;XX   ",
"               *......@@@@@@@@%@.@..@@%..@@@@@.@.....   oX    ",
"                  .........@@@@@@@.@@@.@@.@.@@.......         ",
"                     ........@@@@.@.@.@.@.@..@......          ",
"                        .......@@@@..@@.............          ",
"                          .....@@@@@@@@@@..@.......           ",
"                              ..@@@@.@..@@........            ",
"                                  @..............             ",
"                                    ............              ",
"                                        .....                 ",
"                                                              "};
